%YAML 1.1
%TAG !u! tag:unity3d.com,2011:
--- !u!74 &7400000
AnimationClip:
  m_ObjectHideFlags: 0
  m_CorrespondingSourceObject: {fileID: 0}
  m_PrefabInstance: {fileID: 0}
  m_PrefabAsset: {fileID: 0}
  m_Name: Idle
  serializedVersion: 6
  m_Legacy: 0
  m_Compressed: 0
  m_UseHighQualityCurve: 1
  m_RotationCurves: []
  m_CompressedRotationCurves: []
  m_EulerCurves: []
  m_PositionCurves: []
  m_ScaleCurves: []
  m_FloatCurves: []
  m_PPtrCurves:
  - curve:
    - time: 0
      value: {fileID: 21300000, guid: 8798c43acefea4365b98df982a943c64, type: 3}
    - time: 0.016666668
      value: {fileID: 21300000, guid: d01459f56299543339ea15e5f8eb20b7, type: 3}
    - time: 0.033333335
      value: {fileID: 21300000, guid: 58c756d9947b946a8babf335f5257d0f, type: 3}
    - time: 0.05
      value: {fileID: 21300000, guid: b8726cea36f7246788f61d6be4e0f236, type: 3}
    - time: 0.06666667
      value: {fileID: 21300000, guid: d7672fab72eb345928bc2e214073cb71, type: 3}
    - time: 0.083333336
      value: {fileID: 21300000, guid: a891ae51d435d4cbe9d7dfe4ddd95d2e, type: 3}
    - time: 0.1
      value: {fileID: 21300000, guid: 3944af1696dff4170800c0f3d3134aec, type: 3}
    - time: 0.11666667
      value: {fileID: 21300000, guid: 69ca0a42c2c2c456e87a457fbed208ce, type: 3}
    - time: 0.13333334
      value: {fileID: 21300000, guid: 3bf2efe0bb78b4254aab7023b4ad7cf9, type: 3}
    - time: 0.15
      value: {fileID: 21300000, guid: d17305a97b2634da0b4592a19af30d8b, type: 3}
    - time: 0.16666667
      value: {fileID: 21300000, guid: 98fb7a8c5708d4019a19400ae279727f, type: 3}
    - time: 0.18333334
      value: {fileID: 21300000, guid: 016a3524adb624cd298057ad69861eb9, type: 3}
    - time: 0.2
      value: {fileID: 21300000, guid: a85ed19da10fc40209d7b683b109789a, type: 3}
    - time: 0.21666667
      value: {fileID: 21300000, guid: 907ba608b05b84d5ea9b851d017e72fe, type: 3}
    attribute: m_Sprite
    path: 
    classID: 212
    script: {fileID: 0}
  m_SampleRate: 60
  m_WrapMode: 0
  m_Bounds:
    m_Center: {x: 0, y: 0, z: 0}
    m_Extent: {x: 0, y: 0, z: 0}
  m_ClipBindingConstant:
    genericBindings:
    - serializedVersion: 2
      path: 0
      attribute: 0
      script: {fileID: 0}
      typeID: 212
      customType: 23
      isPPtrCurve: 1
    pptrCurveMapping:
    - {fileID: 21300000, guid: 8798c43acefea4365b98df982a943c64, type: 3}
    - {fileID: 21300000, guid: d01459f56299543339ea15e5f8eb20b7, type: 3}
    - {fileID: 21300000, guid: 58c756d9947b946a8babf335f5257d0f, type: 3}
    - {fileID: 21300000, guid: b8726cea36f7246788f61d6be4e0f236, type: 3}
    - {fileID: 21300000, guid: d7672fab72eb345928bc2e214073cb71, type: 3}
    - {fileID: 21300000, guid: a891ae51d435d4cbe9d7dfe4ddd95d2e, type: 3}
    - {fileID: 21300000, guid: 3944af1696dff4170800c0f3d3134aec, type: 3}
    - {fileID: 21300000, guid: 69ca0a42c2c2c456e87a457fbed208ce, type: 3}
    - {fileID: 21300000, guid: 3bf2efe0bb78b4254aab7023b4ad7cf9, type: 3}
    - {fileID: 21300000, guid: d17305a97b2634da0b4592a19af30d8b, type: 3}
    - {fileID: 21300000, guid: 98fb7a8c5708d4019a19400ae279727f, type: 3}
    - {fileID: 21300000, guid: 016a3524adb624cd298057ad69861eb9, type: 3}
    - {fileID: 21300000, guid: a85ed19da10fc40209d7b683b109789a, type: 3}
    - {fileID: 21300000, guid: 907ba608b05b84d5ea9b851d017e72fe, type: 3}
  m_AnimationClipSettings:
    serializedVersion: 2
    m_AdditiveReferencePoseClip: {fileID: 0}
    m_AdditiveReferencePoseTime: 0
    m_StartTime: 0
    m_StopTime: 0.23333333
    m_OrientationOffsetY: 0
    m_Level: 0
    m_CycleOffset: 0
    m_HasAdditiveReferencePose: 0
    m_LoopTime: 1
    m_LoopBlend: 0
    m_LoopBlendOrientation: 0
    m_LoopBlendPositionY: 0
    m_LoopBlendPositionXZ: 0
    m_KeepOriginalOrientation: 0
    m_KeepOriginalPositionY: 1
    m_KeepOriginalPositionXZ: 0
    m_HeightFromFeet: 0
    m_Mirror: 0
  m_EditorCurves: []
  m_EulerEditorCurves: []
  m_HasGenericRootTransform: 0
  m_HasMotionFloatCurves: 0
  m_Events: []
