%YAML 1.1
%TAG !u! tag:unity3d.com,2011:
--- !u!1001 &945314767854415957
PrefabInstance:
  m_ObjectHideFlags: 0
  serializedVersion: 2
  m_Modification:
    m_TransformParent: {fileID: 1300750751649753926}
    m_Modifications:
    - target: {fileID: 4637467601737986482, guid: 7a01aee5c63ea4a4387de951af8008ab,
        type: 3}
      propertyPath: m_LocalPosition.x
      value: 0
      objectReference: {fileID: 0}
    - target: {fileID: 4637467601737986482, guid: 7a01aee5c63ea4a4387de951af8008ab,
        type: 3}
      propertyPath: m_LocalPosition.y
      value: 0
      objectReference: {fileID: 0}
    - target: {fileID: 4637467601737986482, guid: 7a01aee5c63ea4a4387de951af8008ab,
        type: 3}
      propertyPath: m_LocalPosition.z
      value: 0
      objectReference: {fileID: 0}
    - target: {fileID: 4637467601737986482, guid: 7a01aee5c63ea4a4387de951af8008ab,
        type: 3}
      propertyPath: m_LocalRotation.x
      value: 0
      objectReference: {fileID: 0}
    - target: {fileID: 4637467601737986482, guid: 7a01aee5c63ea4a4387de951af8008ab,
        type: 3}
      propertyPath: m_LocalRotation.y
      value: 0
      objectReference: {fileID: 0}
    - target: {fileID: 4637467601737986482, guid: 7a01aee5c63ea4a4387de951af8008ab,
        type: 3}
      propertyPath: m_LocalRotation.z
      value: 0
      objectReference: {fileID: 0}
    - target: {fileID: 4637467601737986482, guid: 7a01aee5c63ea4a4387de951af8008ab,
        type: 3}
      propertyPath: m_LocalRotation.w
      value: 1
      objectReference: {fileID: 0}
    - target: {fileID: 4637467601737986482, guid: 7a01aee5c63ea4a4387de951af8008ab,
        type: 3}
      propertyPath: m_RootOrder
      value: 2
      objectReference: {fileID: 0}
    - target: {fileID: 4637467601737986482, guid: 7a01aee5c63ea4a4387de951af8008ab,
        type: 3}
      propertyPath: m_LocalEulerAnglesHint.x
      value: 0
      objectReference: {fileID: 0}
    - target: {fileID: 4637467601737986482, guid: 7a01aee5c63ea4a4387de951af8008ab,
        type: 3}
      propertyPath: m_LocalEulerAnglesHint.y
      value: 0
      objectReference: {fileID: 0}
    - target: {fileID: 4637467601737986482, guid: 7a01aee5c63ea4a4387de951af8008ab,
        type: 3}
      propertyPath: m_LocalEulerAnglesHint.z
      value: 0
      objectReference: {fileID: 0}
    - target: {fileID: 4637467601737986482, guid: 7a01aee5c63ea4a4387de951af8008ab,
        type: 3}
      propertyPath: m_AnchoredPosition.x
      value: -16
      objectReference: {fileID: 0}
    - target: {fileID: 4637467601737986482, guid: 7a01aee5c63ea4a4387de951af8008ab,
        type: 3}
      propertyPath: m_AnchoredPosition.y
      value: -292
      objectReference: {fileID: 0}
    - target: {fileID: 4637467601737986482, guid: 7a01aee5c63ea4a4387de951af8008ab,
        type: 3}
      propertyPath: m_SizeDelta.x
      value: 498.9
      objectReference: {fileID: 0}
    - target: {fileID: 4637467601737986482, guid: 7a01aee5c63ea4a4387de951af8008ab,
        type: 3}
      propertyPath: m_SizeDelta.y
      value: 102.3
      objectReference: {fileID: 0}
    - target: {fileID: 4637467601737986482, guid: 7a01aee5c63ea4a4387de951af8008ab,
        type: 3}
      propertyPath: m_AnchorMin.x
      value: 0.5
      objectReference: {fileID: 0}
    - target: {fileID: 4637467601737986482, guid: 7a01aee5c63ea4a4387de951af8008ab,
        type: 3}
      propertyPath: m_AnchorMin.y
      value: 0.629
      objectReference: {fileID: 0}
    - target: {fileID: 4637467601737986482, guid: 7a01aee5c63ea4a4387de951af8008ab,
        type: 3}
      propertyPath: m_AnchorMax.x
      value: 0.5
      objectReference: {fileID: 0}
    - target: {fileID: 4637467601737986482, guid: 7a01aee5c63ea4a4387de951af8008ab,
        type: 3}
      propertyPath: m_AnchorMax.y
      value: 0.629
      objectReference: {fileID: 0}
    - target: {fileID: 4637467601737986482, guid: 7a01aee5c63ea4a4387de951af8008ab,
        type: 3}
      propertyPath: m_Pivot.x
      value: 0.5
      objectReference: {fileID: 0}
    - target: {fileID: 4637467601737986482, guid: 7a01aee5c63ea4a4387de951af8008ab,
        type: 3}
      propertyPath: m_Pivot.y
      value: 0.5
      objectReference: {fileID: 0}
    - target: {fileID: 4637467601738025540, guid: 7a01aee5c63ea4a4387de951af8008ab,
        type: 3}
      propertyPath: m_AnchorMin.x
      value: 0
      objectReference: {fileID: 0}
    - target: {fileID: 4637467601738025540, guid: 7a01aee5c63ea4a4387de951af8008ab,
        type: 3}
      propertyPath: m_AnchorMax.x
      value: 0
      objectReference: {fileID: 0}
    - target: {fileID: 4637467601738025540, guid: 7a01aee5c63ea4a4387de951af8008ab,
        type: 3}
      propertyPath: m_AnchorMax.y
      value: 0
      objectReference: {fileID: 0}
    - target: {fileID: 4637467601738064648, guid: 7a01aee5c63ea4a4387de951af8008ab,
        type: 3}
      propertyPath: m_AnchorMax.x
      value: 0
      objectReference: {fileID: 0}
    - target: {fileID: 4637467601738064648, guid: 7a01aee5c63ea4a4387de951af8008ab,
        type: 3}
      propertyPath: m_AnchorMax.y
      value: 0
      objectReference: {fileID: 0}
    - target: {fileID: 4637467601738533630, guid: 7a01aee5c63ea4a4387de951af8008ab,
        type: 3}
      propertyPath: m_FontData.m_Font
      value: 
      objectReference: {fileID: 12800000, guid: e490cee9d05f6e64faf99d5854271d50,
        type: 3}
    - target: {fileID: 4637467601738533630, guid: 7a01aee5c63ea4a4387de951af8008ab,
        type: 3}
      propertyPath: m_Text
      value: SFX Volume
      objectReference: {fileID: 0}
    - target: {fileID: 4637467601738533630, guid: 7a01aee5c63ea4a4387de951af8008ab,
        type: 3}
      propertyPath: m_Color.r
      value: 0
      objectReference: {fileID: 0}
    - target: {fileID: 4637467601738533630, guid: 7a01aee5c63ea4a4387de951af8008ab,
        type: 3}
      propertyPath: m_Color.g
      value: 0
      objectReference: {fileID: 0}
    - target: {fileID: 4637467601738533630, guid: 7a01aee5c63ea4a4387de951af8008ab,
        type: 3}
      propertyPath: m_Color.b
      value: 0
      objectReference: {fileID: 0}
    - target: {fileID: 4637467601738596888, guid: 7a01aee5c63ea4a4387de951af8008ab,
        type: 3}
      propertyPath: m_OnValueChanged.m_PersistentCalls.m_Calls.Array.data[0].m_Target
      value: 
      objectReference: {fileID: 1300750751636651668}
    - target: {fileID: 4637467601738596888, guid: 7a01aee5c63ea4a4387de951af8008ab,
        type: 3}
      propertyPath: m_Colors.m_NormalColor.r
      value: 0.10980393
      objectReference: {fileID: 0}
    - target: {fileID: 4637467601738596888, guid: 7a01aee5c63ea4a4387de951af8008ab,
        type: 3}
      propertyPath: m_Colors.m_NormalColor.g
      value: 0.654902
      objectReference: {fileID: 0}
    - target: {fileID: 4637467601738596888, guid: 7a01aee5c63ea4a4387de951af8008ab,
        type: 3}
      propertyPath: m_Colors.m_NormalColor.b
      value: 0.89019614
      objectReference: {fileID: 0}
    - target: {fileID: 4637467601738596888, guid: 7a01aee5c63ea4a4387de951af8008ab,
        type: 3}
      propertyPath: m_Colors.m_HighlightedColor.r
      value: 0.59003824
      objectReference: {fileID: 0}
    - target: {fileID: 4637467601738596888, guid: 7a01aee5c63ea4a4387de951af8008ab,
        type: 3}
      propertyPath: m_Colors.m_HighlightedColor.g
      value: 0.5424528
      objectReference: {fileID: 0}
    - target: {fileID: 4637467601738596888, guid: 7a01aee5c63ea4a4387de951af8008ab,
        type: 3}
      propertyPath: m_Colors.m_PressedColor.r
      value: 0.3775156
      objectReference: {fileID: 0}
    - target: {fileID: 4637467601738596888, guid: 7a01aee5c63ea4a4387de951af8008ab,
        type: 3}
      propertyPath: m_Colors.m_PressedColor.g
      value: 0.16794233
      objectReference: {fileID: 0}
    - target: {fileID: 4637467601738596888, guid: 7a01aee5c63ea4a4387de951af8008ab,
        type: 3}
      propertyPath: m_Colors.m_PressedColor.b
      value: 0.9622642
      objectReference: {fileID: 0}
    - target: {fileID: 4637467601738596888, guid: 7a01aee5c63ea4a4387de951af8008ab,
        type: 3}
      propertyPath: m_Colors.m_SelectedColor.r
      value: 0.11690103
      objectReference: {fileID: 0}
    - target: {fileID: 4637467601738596888, guid: 7a01aee5c63ea4a4387de951af8008ab,
        type: 3}
      propertyPath: m_Colors.m_SelectedColor.g
      value: 0.5019117
      objectReference: {fileID: 0}
    - target: {fileID: 4637467601738596888, guid: 7a01aee5c63ea4a4387de951af8008ab,
        type: 3}
      propertyPath: m_Colors.m_SelectedColor.b
      value: 0.6698113
      objectReference: {fileID: 0}
    - target: {fileID: 4637467601749865650, guid: 7a01aee5c63ea4a4387de951af8008ab,
        type: 3}
      propertyPath: m_Name
      value: SFXVolSliderOptions
      objectReference: {fileID: 0}
    m_RemovedComponents: []
  m_SourcePrefab: {fileID: 100100000, guid: 7a01aee5c63ea4a4387de951af8008ab, type: 3}
--- !u!1001 &2726111849640190397
PrefabInstance:
  m_ObjectHideFlags: 0
  serializedVersion: 2
  m_Modification:
    m_TransformParent: {fileID: 1300750751649753926}
    m_Modifications:
    - target: {fileID: 4637467601737986482, guid: 7a01aee5c63ea4a4387de951af8008ab,
        type: 3}
      propertyPath: m_LocalPosition.x
      value: 0
      objectReference: {fileID: 0}
    - target: {fileID: 4637467601737986482, guid: 7a01aee5c63ea4a4387de951af8008ab,
        type: 3}
      propertyPath: m_LocalPosition.y
      value: 0
      objectReference: {fileID: 0}
    - target: {fileID: 4637467601737986482, guid: 7a01aee5c63ea4a4387de951af8008ab,
        type: 3}
      propertyPath: m_LocalPosition.z
      value: 0
      objectReference: {fileID: 0}
    - target: {fileID: 4637467601737986482, guid: 7a01aee5c63ea4a4387de951af8008ab,
        type: 3}
      propertyPath: m_LocalRotation.x
      value: 0
      objectReference: {fileID: 0}
    - target: {fileID: 4637467601737986482, guid: 7a01aee5c63ea4a4387de951af8008ab,
        type: 3}
      propertyPath: m_LocalRotation.y
      value: 0
      objectReference: {fileID: 0}
    - target: {fileID: 4637467601737986482, guid: 7a01aee5c63ea4a4387de951af8008ab,
        type: 3}
      propertyPath: m_LocalRotation.z
      value: 0
      objectReference: {fileID: 0}
    - target: {fileID: 4637467601737986482, guid: 7a01aee5c63ea4a4387de951af8008ab,
        type: 3}
      propertyPath: m_LocalRotation.w
      value: 1
      objectReference: {fileID: 0}
    - target: {fileID: 4637467601737986482, guid: 7a01aee5c63ea4a4387de951af8008ab,
        type: 3}
      propertyPath: m_RootOrder
      value: 1
      objectReference: {fileID: 0}
    - target: {fileID: 4637467601737986482, guid: 7a01aee5c63ea4a4387de951af8008ab,
        type: 3}
      propertyPath: m_LocalEulerAnglesHint.x
      value: 0
      objectReference: {fileID: 0}
    - target: {fileID: 4637467601737986482, guid: 7a01aee5c63ea4a4387de951af8008ab,
        type: 3}
      propertyPath: m_LocalEulerAnglesHint.y
      value: 0
      objectReference: {fileID: 0}
    - target: {fileID: 4637467601737986482, guid: 7a01aee5c63ea4a4387de951af8008ab,
        type: 3}
      propertyPath: m_LocalEulerAnglesHint.z
      value: 0
      objectReference: {fileID: 0}
    - target: {fileID: 4637467601737986482, guid: 7a01aee5c63ea4a4387de951af8008ab,
        type: 3}
      propertyPath: m_AnchoredPosition.x
      value: -16
      objectReference: {fileID: 0}
    - target: {fileID: 4637467601737986482, guid: 7a01aee5c63ea4a4387de951af8008ab,
        type: 3}
      propertyPath: m_AnchoredPosition.y
      value: -43
      objectReference: {fileID: 0}
    - target: {fileID: 4637467601737986482, guid: 7a01aee5c63ea4a4387de951af8008ab,
        type: 3}
      propertyPath: m_SizeDelta.x
      value: 498.9
      objectReference: {fileID: 0}
    - target: {fileID: 4637467601737986482, guid: 7a01aee5c63ea4a4387de951af8008ab,
        type: 3}
      propertyPath: m_SizeDelta.y
      value: 102.3
      objectReference: {fileID: 0}
    - target: {fileID: 4637467601737986482, guid: 7a01aee5c63ea4a4387de951af8008ab,
        type: 3}
      propertyPath: m_AnchorMin.x
      value: 0.5
      objectReference: {fileID: 0}
    - target: {fileID: 4637467601737986482, guid: 7a01aee5c63ea4a4387de951af8008ab,
        type: 3}
      propertyPath: m_AnchorMin.y
      value: 0.629
      objectReference: {fileID: 0}
    - target: {fileID: 4637467601737986482, guid: 7a01aee5c63ea4a4387de951af8008ab,
        type: 3}
      propertyPath: m_AnchorMax.x
      value: 0.5
      objectReference: {fileID: 0}
    - target: {fileID: 4637467601737986482, guid: 7a01aee5c63ea4a4387de951af8008ab,
        type: 3}
      propertyPath: m_AnchorMax.y
      value: 0.629
      objectReference: {fileID: 0}
    - target: {fileID: 4637467601737986482, guid: 7a01aee5c63ea4a4387de951af8008ab,
        type: 3}
      propertyPath: m_Pivot.x
      value: 0.5
      objectReference: {fileID: 0}
    - target: {fileID: 4637467601737986482, guid: 7a01aee5c63ea4a4387de951af8008ab,
        type: 3}
      propertyPath: m_Pivot.y
      value: 0.5
      objectReference: {fileID: 0}
    - target: {fileID: 4637467601738025540, guid: 7a01aee5c63ea4a4387de951af8008ab,
        type: 3}
      propertyPath: m_AnchorMin.x
      value: 0
      objectReference: {fileID: 0}
    - target: {fileID: 4637467601738025540, guid: 7a01aee5c63ea4a4387de951af8008ab,
        type: 3}
      propertyPath: m_AnchorMax.x
      value: 0
      objectReference: {fileID: 0}
    - target: {fileID: 4637467601738025540, guid: 7a01aee5c63ea4a4387de951af8008ab,
        type: 3}
      propertyPath: m_AnchorMax.y
      value: 0
      objectReference: {fileID: 0}
    - target: {fileID: 4637467601738064648, guid: 7a01aee5c63ea4a4387de951af8008ab,
        type: 3}
      propertyPath: m_AnchorMax.x
      value: 0
      objectReference: {fileID: 0}
    - target: {fileID: 4637467601738064648, guid: 7a01aee5c63ea4a4387de951af8008ab,
        type: 3}
      propertyPath: m_AnchorMax.y
      value: 0
      objectReference: {fileID: 0}
    - target: {fileID: 4637467601738533630, guid: 7a01aee5c63ea4a4387de951af8008ab,
        type: 3}
      propertyPath: m_FontData.m_Font
      value: 
      objectReference: {fileID: 12800000, guid: e490cee9d05f6e64faf99d5854271d50,
        type: 3}
    - target: {fileID: 4637467601738533630, guid: 7a01aee5c63ea4a4387de951af8008ab,
        type: 3}
      propertyPath: m_Color.r
      value: 0
      objectReference: {fileID: 0}
    - target: {fileID: 4637467601738533630, guid: 7a01aee5c63ea4a4387de951af8008ab,
        type: 3}
      propertyPath: m_Color.g
      value: 0
      objectReference: {fileID: 0}
    - target: {fileID: 4637467601738533630, guid: 7a01aee5c63ea4a4387de951af8008ab,
        type: 3}
      propertyPath: m_Color.b
      value: 0
      objectReference: {fileID: 0}
    - target: {fileID: 4637467601738596888, guid: 7a01aee5c63ea4a4387de951af8008ab,
        type: 3}
      propertyPath: m_OnValueChanged.m_PersistentCalls.m_Calls.Array.data[0].m_Target
      value: 
      objectReference: {fileID: 1300750751636651668}
    - target: {fileID: 4637467601738596888, guid: 7a01aee5c63ea4a4387de951af8008ab,
        type: 3}
      propertyPath: m_OnValueChanged.m_PersistentCalls.m_Calls.Array.data[0].m_MethodName
      value: SetMusicLevel
      objectReference: {fileID: 0}
    - target: {fileID: 4637467601738596888, guid: 7a01aee5c63ea4a4387de951af8008ab,
        type: 3}
      propertyPath: m_Colors.m_NormalColor.r
      value: 0.10980393
      objectReference: {fileID: 0}
    - target: {fileID: 4637467601738596888, guid: 7a01aee5c63ea4a4387de951af8008ab,
        type: 3}
      propertyPath: m_Colors.m_NormalColor.g
      value: 0.654902
      objectReference: {fileID: 0}
    - target: {fileID: 4637467601738596888, guid: 7a01aee5c63ea4a4387de951af8008ab,
        type: 3}
      propertyPath: m_Colors.m_NormalColor.b
      value: 0.89019614
      objectReference: {fileID: 0}
    - target: {fileID: 4637467601738596888, guid: 7a01aee5c63ea4a4387de951af8008ab,
        type: 3}
      propertyPath: m_Colors.m_HighlightedColor.r
      value: 0.59003824
      objectReference: {fileID: 0}
    - target: {fileID: 4637467601738596888, guid: 7a01aee5c63ea4a4387de951af8008ab,
        type: 3}
      propertyPath: m_Colors.m_HighlightedColor.g
      value: 0.5424528
      objectReference: {fileID: 0}
    - target: {fileID: 4637467601738596888, guid: 7a01aee5c63ea4a4387de951af8008ab,
        type: 3}
      propertyPath: m_Colors.m_PressedColor.r
      value: 0.3775156
      objectReference: {fileID: 0}
    - target: {fileID: 4637467601738596888, guid: 7a01aee5c63ea4a4387de951af8008ab,
        type: 3}
      propertyPath: m_Colors.m_PressedColor.g
      value: 0.16794233
      objectReference: {fileID: 0}
    - target: {fileID: 4637467601738596888, guid: 7a01aee5c63ea4a4387de951af8008ab,
        type: 3}
      propertyPath: m_Colors.m_PressedColor.b
      value: 0.9622642
      objectReference: {fileID: 0}
    - target: {fileID: 4637467601738596888, guid: 7a01aee5c63ea4a4387de951af8008ab,
        type: 3}
      propertyPath: m_Colors.m_SelectedColor.r
      value: 0.11690103
      objectReference: {fileID: 0}
    - target: {fileID: 4637467601738596888, guid: 7a01aee5c63ea4a4387de951af8008ab,
        type: 3}
      propertyPath: m_Colors.m_SelectedColor.g
      value: 0.5019117
      objectReference: {fileID: 0}
    - target: {fileID: 4637467601738596888, guid: 7a01aee5c63ea4a4387de951af8008ab,
        type: 3}
      propertyPath: m_Colors.m_SelectedColor.b
      value: 0.6698113
      objectReference: {fileID: 0}
    - target: {fileID: 4637467601749865650, guid: 7a01aee5c63ea4a4387de951af8008ab,
        type: 3}
      propertyPath: m_Name
      value: MusicVolSliderOptions
      objectReference: {fileID: 0}
    m_RemovedComponents: []
  m_SourcePrefab: {fileID: 100100000, guid: 7a01aee5c63ea4a4387de951af8008ab, type: 3}
--- !u!1 &7317927724191290639 stripped
GameObject:
  m_CorrespondingSourceObject: {fileID: 4637467601749865650, guid: 7a01aee5c63ea4a4387de951af8008ab,
    type: 3}
  m_PrefabInstance: {fileID: 2726111849640190397}
  m_PrefabAsset: {fileID: 0}
--- !u!1001 &3586367314353472313
PrefabInstance:
  m_ObjectHideFlags: 0
  serializedVersion: 2
  m_Modification:
    m_TransformParent: {fileID: 0}
    m_Modifications:
    - target: {fileID: 2476507970603279347, guid: 771ce842b9c29374196b80c2d4501f90,
        type: 3}
      propertyPath: firstSelectedObject
      value: 
      objectReference: {fileID: 7317927724191290639}
    - target: {fileID: 2578425103971755405, guid: 771ce842b9c29374196b80c2d4501f90,
        type: 3}
      propertyPath: m_Name
      value: Panel Option
      objectReference: {fileID: 0}
    - target: {fileID: 2578425103977261557, guid: 771ce842b9c29374196b80c2d4501f90,
        type: 3}
      propertyPath: m_Color.r
      value: 0
      objectReference: {fileID: 0}
    - target: {fileID: 2578425103977261557, guid: 771ce842b9c29374196b80c2d4501f90,
        type: 3}
      propertyPath: m_Color.g
      value: 0
      objectReference: {fileID: 0}
    - target: {fileID: 2578425103977261557, guid: 771ce842b9c29374196b80c2d4501f90,
        type: 3}
      propertyPath: m_Color.b
      value: 0
      objectReference: {fileID: 0}
    - target: {fileID: 2578425103993514111, guid: 771ce842b9c29374196b80c2d4501f90,
        type: 3}
      propertyPath: m_LocalPosition.x
      value: 0
      objectReference: {fileID: 0}
    - target: {fileID: 2578425103993514111, guid: 771ce842b9c29374196b80c2d4501f90,
        type: 3}
      propertyPath: m_LocalPosition.y
      value: 0
      objectReference: {fileID: 0}
    - target: {fileID: 2578425103993514111, guid: 771ce842b9c29374196b80c2d4501f90,
        type: 3}
      propertyPath: m_LocalPosition.z
      value: 0
      objectReference: {fileID: 0}
    - target: {fileID: 2578425103993514111, guid: 771ce842b9c29374196b80c2d4501f90,
        type: 3}
      propertyPath: m_LocalRotation.x
      value: 0
      objectReference: {fileID: 0}
    - target: {fileID: 2578425103993514111, guid: 771ce842b9c29374196b80c2d4501f90,
        type: 3}
      propertyPath: m_LocalRotation.y
      value: 0
      objectReference: {fileID: 0}
    - target: {fileID: 2578425103993514111, guid: 771ce842b9c29374196b80c2d4501f90,
        type: 3}
      propertyPath: m_LocalRotation.z
      value: 0
      objectReference: {fileID: 0}
    - target: {fileID: 2578425103993514111, guid: 771ce842b9c29374196b80c2d4501f90,
        type: 3}
      propertyPath: m_LocalRotation.w
      value: 1
      objectReference: {fileID: 0}
    - target: {fileID: 2578425103993514111, guid: 771ce842b9c29374196b80c2d4501f90,
        type: 3}
      propertyPath: m_RootOrder
      value: 0
      objectReference: {fileID: 0}
    - target: {fileID: 2578425103993514111, guid: 771ce842b9c29374196b80c2d4501f90,
        type: 3}
      propertyPath: m_LocalEulerAnglesHint.x
      value: 0
      objectReference: {fileID: 0}
    - target: {fileID: 2578425103993514111, guid: 771ce842b9c29374196b80c2d4501f90,
        type: 3}
      propertyPath: m_LocalEulerAnglesHint.y
      value: 0
      objectReference: {fileID: 0}
    - target: {fileID: 2578425103993514111, guid: 771ce842b9c29374196b80c2d4501f90,
        type: 3}
      propertyPath: m_LocalEulerAnglesHint.z
      value: 0
      objectReference: {fileID: 0}
    - target: {fileID: 2578425103993514111, guid: 771ce842b9c29374196b80c2d4501f90,
        type: 3}
      propertyPath: m_AnchoredPosition.x
      value: 0
      objectReference: {fileID: 0}
    - target: {fileID: 2578425103993514111, guid: 771ce842b9c29374196b80c2d4501f90,
        type: 3}
      propertyPath: m_AnchoredPosition.y
      value: 0
      objectReference: {fileID: 0}
    - target: {fileID: 2578425103993514111, guid: 771ce842b9c29374196b80c2d4501f90,
        type: 3}
      propertyPath: m_SizeDelta.x
      value: 744.5
      objectReference: {fileID: 0}
    - target: {fileID: 2578425103993514111, guid: 771ce842b9c29374196b80c2d4501f90,
        type: 3}
      propertyPath: m_SizeDelta.y
      value: 1108.7
      objectReference: {fileID: 0}
    - target: {fileID: 2578425103993514111, guid: 771ce842b9c29374196b80c2d4501f90,
        type: 3}
      propertyPath: m_AnchorMin.x
      value: 0.5
      objectReference: {fileID: 0}
    - target: {fileID: 2578425103993514111, guid: 771ce842b9c29374196b80c2d4501f90,
        type: 3}
      propertyPath: m_AnchorMin.y
      value: 0.5
      objectReference: {fileID: 0}
    - target: {fileID: 2578425103993514111, guid: 771ce842b9c29374196b80c2d4501f90,
        type: 3}
      propertyPath: m_AnchorMax.x
      value: 0.5
      objectReference: {fileID: 0}
    - target: {fileID: 2578425103993514111, guid: 771ce842b9c29374196b80c2d4501f90,
        type: 3}
      propertyPath: m_AnchorMax.y
      value: 0.5
      objectReference: {fileID: 0}
    - target: {fileID: 2578425103993514111, guid: 771ce842b9c29374196b80c2d4501f90,
        type: 3}
      propertyPath: m_Pivot.x
      value: 0.5
      objectReference: {fileID: 0}
    - target: {fileID: 2578425103993514111, guid: 771ce842b9c29374196b80c2d4501f90,
        type: 3}
      propertyPath: m_Pivot.y
      value: 0.5
      objectReference: {fileID: 0}
    m_RemovedComponents: []
  m_SourcePrefab: {fileID: 100100000, guid: 771ce842b9c29374196b80c2d4501f90, type: 3}
--- !u!224 &1300750751649753926 stripped
RectTransform:
  m_CorrespondingSourceObject: {fileID: 2578425103993514111, guid: 771ce842b9c29374196b80c2d4501f90,
    type: 3}
  m_PrefabInstance: {fileID: 3586367314353472313}
  m_PrefabAsset: {fileID: 0}
--- !u!114 &1300750751636651668 stripped
MonoBehaviour:
  m_CorrespondingSourceObject: {fileID: 2578425103977266605, guid: 771ce842b9c29374196b80c2d4501f90,
    type: 3}
  m_PrefabInstance: {fileID: 3586367314353472313}
  m_PrefabAsset: {fileID: 0}
  m_GameObject: {fileID: 0}
  m_Enabled: 1
  m_EditorHideFlags: 0
  m_Script: {fileID: 11500000, guid: d1e7f18868b2549738d2c110db32ca9e, type: 3}
  m_Name: 
  m_EditorClassIdentifier: 
--- !u!1001 &6243435102185344040
PrefabInstance:
  m_ObjectHideFlags: 0
  serializedVersion: 2
  m_Modification:
    m_TransformParent: {fileID: 1300750751649753926}
    m_Modifications:
    - target: {fileID: 2937853456117844996, guid: 8fbf5f8427ab689459a3d37700e2f4f4,
        type: 3}
      propertyPath: buttonType
      value: 2
      objectReference: {fileID: 0}
    - target: {fileID: 2977094155613958544, guid: 8fbf5f8427ab689459a3d37700e2f4f4,
        type: 3}
      propertyPath: m_LocalPosition.x
      value: 0
      objectReference: {fileID: 0}
    - target: {fileID: 2977094155613958544, guid: 8fbf5f8427ab689459a3d37700e2f4f4,
        type: 3}
      propertyPath: m_LocalPosition.y
      value: 0
      objectReference: {fileID: 0}
    - target: {fileID: 2977094155613958544, guid: 8fbf5f8427ab689459a3d37700e2f4f4,
        type: 3}
      propertyPath: m_LocalPosition.z
      value: 0
      objectReference: {fileID: 0}
    - target: {fileID: 2977094155613958544, guid: 8fbf5f8427ab689459a3d37700e2f4f4,
        type: 3}
      propertyPath: m_LocalRotation.x
      value: 0
      objectReference: {fileID: 0}
    - target: {fileID: 2977094155613958544, guid: 8fbf5f8427ab689459a3d37700e2f4f4,
        type: 3}
      propertyPath: m_LocalRotation.y
      value: 0
      objectReference: {fileID: 0}
    - target: {fileID: 2977094155613958544, guid: 8fbf5f8427ab689459a3d37700e2f4f4,
        type: 3}
      propertyPath: m_LocalRotation.z
      value: 0
      objectReference: {fileID: 0}
    - target: {fileID: 2977094155613958544, guid: 8fbf5f8427ab689459a3d37700e2f4f4,
        type: 3}
      propertyPath: m_LocalRotation.w
      value: 1
      objectReference: {fileID: 0}
    - target: {fileID: 2977094155613958544, guid: 8fbf5f8427ab689459a3d37700e2f4f4,
        type: 3}
      propertyPath: m_RootOrder
      value: 3
      objectReference: {fileID: 0}
    - target: {fileID: 2977094155613958544, guid: 8fbf5f8427ab689459a3d37700e2f4f4,
        type: 3}
      propertyPath: m_LocalEulerAnglesHint.x
      value: 0
      objectReference: {fileID: 0}
    - target: {fileID: 2977094155613958544, guid: 8fbf5f8427ab689459a3d37700e2f4f4,
        type: 3}
      propertyPath: m_LocalEulerAnglesHint.y
      value: 0
      objectReference: {fileID: 0}
    - target: {fileID: 2977094155613958544, guid: 8fbf5f8427ab689459a3d37700e2f4f4,
        type: 3}
      propertyPath: m_LocalEulerAnglesHint.z
      value: 0
      objectReference: {fileID: 0}
    - target: {fileID: 2977094155613958544, guid: 8fbf5f8427ab689459a3d37700e2f4f4,
        type: 3}
      propertyPath: m_AnchoredPosition.x
      value: -200
      objectReference: {fileID: 0}
    - target: {fileID: 2977094155613958544, guid: 8fbf5f8427ab689459a3d37700e2f4f4,
        type: 3}
      propertyPath: m_AnchoredPosition.y
      value: 120
      objectReference: {fileID: 0}
    - target: {fileID: 2977094155613958544, guid: 8fbf5f8427ab689459a3d37700e2f4f4,
        type: 3}
      propertyPath: m_SizeDelta.x
      value: 280
      objectReference: {fileID: 0}
    - target: {fileID: 2977094155613958544, guid: 8fbf5f8427ab689459a3d37700e2f4f4,
        type: 3}
      propertyPath: m_SizeDelta.y
      value: 130
      objectReference: {fileID: 0}
    - target: {fileID: 2977094155613958544, guid: 8fbf5f8427ab689459a3d37700e2f4f4,
        type: 3}
      propertyPath: m_AnchorMin.x
      value: 1
      objectReference: {fileID: 0}
    - target: {fileID: 2977094155613958544, guid: 8fbf5f8427ab689459a3d37700e2f4f4,
        type: 3}
      propertyPath: m_AnchorMin.y
      value: 0
      objectReference: {fileID: 0}
    - target: {fileID: 2977094155613958544, guid: 8fbf5f8427ab689459a3d37700e2f4f4,
        type: 3}
      propertyPath: m_AnchorMax.x
      value: 1
      objectReference: {fileID: 0}
    - target: {fileID: 2977094155613958544, guid: 8fbf5f8427ab689459a3d37700e2f4f4,
        type: 3}
      propertyPath: m_AnchorMax.y
      value: 0
      objectReference: {fileID: 0}
    - target: {fileID: 2977094155613958544, guid: 8fbf5f8427ab689459a3d37700e2f4f4,
        type: 3}
      propertyPath: m_Pivot.x
      value: 0.5
      objectReference: {fileID: 0}
    - target: {fileID: 2977094155613958544, guid: 8fbf5f8427ab689459a3d37700e2f4f4,
        type: 3}
      propertyPath: m_Pivot.y
      value: 0.5
      objectReference: {fileID: 0}
    - target: {fileID: 2977094155627737408, guid: 8fbf5f8427ab689459a3d37700e2f4f4,
        type: 3}
      propertyPath: m_Name
      value: ButtonExit
      objectReference: {fileID: 0}
    - target: {fileID: 2977094155638577664, guid: 8fbf5f8427ab689459a3d37700e2f4f4,
        type: 3}
      propertyPath: m_Sprite
      value: 
      objectReference: {fileID: 21300000, guid: ff81f88351c35ac41bd4dece6383f384,
        type: 3}
    m_RemovedComponents: []
  m_SourcePrefab: {fileID: 100100000, guid: 8fbf5f8427ab689459a3d37700e2f4f4, type: 3}
